<?xml version="1.0" encoding="UTF-8"?>
<svg xmlns="http://www.w3.org/2000/svg" xmlns:xlink="http://www.w3.org/1999/xlink" width="32pt" height="32pt" viewBox="0 0 32 32" version="1.1">
<g id="surface1">
<path style=" stroke:none;fill-rule:nonzero;fill:rgb(100%,100%,100%);fill-opacity:1;" d="M 13.664062 1.90625 L 15.667969 1.90625 L 15.667969 6.636719 L 13.664062 6.636719 Z M 13.664062 1.90625 "/>
<path style=" stroke:none;fill-rule:nonzero;fill:rgb(100%,100%,100%);fill-opacity:1;" d="M 17.425781 9.078125 L 11.90625 9.078125 L 11.90625 6.367188 C 11.90625 6.03125 12.179688 5.761719 12.515625 5.761719 L 16.816406 5.761719 C 17.152344 5.761719 17.425781 6.03125 17.425781 6.367188 Z M 17.425781 9.078125 "/>
<path style=" stroke:none;fill-rule:nonzero;fill:rgb(100%,100%,100%);fill-opacity:1;" d="M 10.757812 8.085938 L 10.757812 9.75 L 9.027344 11.109375 C 8.363281 11.628906 7.976562 12.425781 7.976562 13.269531 L 7.976562 29.722656 C 7.976562 30.722656 8.789062 31.53125 9.785156 31.53125 L 19.546875 31.53125 C 20.546875 31.53125 21.355469 30.722656 21.355469 29.722656 L 21.355469 13.269531 C 21.355469 12.425781 20.96875 11.628906 20.304688 11.109375 L 18.574219 9.75 L 18.574219 8.085938 C 18.574219 7.945312 18.457031 7.828125 18.316406 7.828125 L 11.019531 7.828125 C 10.875 7.828125 10.757812 7.945312 10.757812 8.085938 Z M 10.757812 8.085938 "/>
<path style=" stroke:none;fill-rule:nonzero;fill:rgb(100%,100%,100%);fill-opacity:1;" d="M 11.089844 31.453125 L 11.089844 15.003906 C 11.089844 14.160156 11.476562 13.363281 12.136719 12.839844 L 13.257812 11.964844 C 13.644531 11.660156 13.871094 11.195312 13.871094 10.703125 C 13.871094 10.070312 14.378906 9.5625 15.011719 9.5625 L 18.574219 9.5625 L 18.574219 8.085938 C 18.574219 7.945312 18.457031 7.828125 18.316406 7.828125 L 11.019531 7.828125 C 10.875 7.828125 10.757812 7.945312 10.757812 8.085938 L 10.757812 9.75 L 9.027344 11.109375 C 8.363281 11.628906 7.976562 12.425781 7.976562 13.269531 L 7.976562 29.722656 C 7.976562 30.722656 8.789062 31.53125 9.785156 31.53125 L 11.089844 31.53125 C 11.089844 31.507812 11.089844 31.480469 11.089844 31.453125 Z M 11.089844 31.453125 "/>
<path style=" stroke:none;fill-rule:nonzero;fill:rgb(100%,100%,100%);fill-opacity:1;" d="M 22.136719 4.039062 L 23.761719 4.039062 C 23.949219 4.039062 24.074219 3.847656 24 3.675781 L 23.878906 3.386719 C 23.132812 1.617188 21.398438 0.46875 19.480469 0.46875 L 9.511719 0.46875 C 9.363281 0.46875 9.246094 0.585938 9.246094 0.730469 L 9.246094 2.203125 C 9.246094 2.351562 9.363281 2.46875 9.511719 2.46875 L 19.480469 2.46875 C 20.503906 2.46875 21.425781 3.023438 21.910156 3.90625 C 21.957031 3.988281 22.042969 4.039062 22.136719 4.039062 Z M 22.136719 4.039062 "/>
<path style=" stroke:none;fill-rule:nonzero;fill:rgb(100%,100%,100%);fill-opacity:1;" d="M 19.511719 20.921875 C 19.511719 23.597656 17.34375 25.769531 14.667969 25.769531 C 11.992188 25.769531 9.820312 23.597656 9.820312 20.921875 C 9.820312 18.246094 11.992188 16.078125 14.667969 16.078125 C 17.34375 16.078125 19.511719 18.246094 19.511719 20.921875 Z M 19.511719 20.921875 "/>
<path style=" stroke:none;fill-rule:nonzero;fill:rgb(100%,100%,100%);fill-opacity:1;" d="M 16.871094 19.9375 L 15.652344 19.9375 L 15.652344 18.71875 C 15.652344 18.5625 15.523438 18.433594 15.363281 18.433594 L 13.96875 18.433594 C 13.808594 18.433594 13.683594 18.5625 13.683594 18.71875 L 13.683594 19.9375 L 12.464844 19.9375 C 12.304688 19.9375 12.179688 20.066406 12.179688 20.222656 L 12.179688 21.621094 C 12.179688 21.777344 12.304688 21.90625 12.464844 21.90625 L 13.683594 21.90625 L 13.683594 23.125 C 13.683594 23.28125 13.808594 23.410156 13.96875 23.410156 L 15.363281 23.410156 C 15.523438 23.410156 15.652344 23.28125 15.652344 23.125 L 15.652344 21.90625 L 16.871094 21.90625 C 17.027344 21.90625 17.15625 21.777344 17.15625 21.621094 L 17.15625 20.222656 C 17.15625 20.066406 17.027344 19.9375 16.871094 19.9375 Z M 16.871094 19.9375 "/>
<path style=" stroke:none;fill-rule:nonzero;fill:rgb(0%,0%,0%);fill-opacity:1;" d="M 24.433594 3.496094 L 24.3125 3.203125 C 23.488281 1.257812 21.59375 0 19.480469 0 L 12.699219 0 C 12.4375 0 12.230469 0.210938 12.230469 0.46875 C 12.230469 0.726562 12.4375 0.9375 12.699219 0.9375 L 19.480469 0.9375 C 21.214844 0.9375 22.773438 1.96875 23.449219 3.566406 L 23.449219 3.570312 L 22.257812 3.570312 C 21.675781 2.597656 20.621094 2 19.480469 2 L 9.714844 2 L 9.714844 0.9375 L 10.699219 0.9375 C 10.960938 0.9375 11.167969 0.726562 11.167969 0.46875 C 11.167969 0.210938 10.960938 0 10.699219 0 L 9.511719 0 C 9.105469 0 8.777344 0.328125 8.777344 0.730469 L 8.777344 2.203125 C 8.777344 2.609375 9.105469 2.9375 9.511719 2.9375 L 13.195312 2.9375 L 13.195312 5.292969 L 12.515625 5.292969 C 11.921875 5.292969 11.441406 5.773438 11.441406 6.367188 L 11.441406 7.359375 L 11.019531 7.359375 C 10.617188 7.359375 10.289062 7.6875 10.289062 8.085938 L 10.289062 9.519531 L 8.738281 10.742188 C 7.957031 11.355469 7.507812 12.277344 7.507812 13.269531 L 7.507812 29.722656 C 7.507812 30.976562 8.53125 32 9.785156 32 L 19.546875 32 C 20.804688 32 21.824219 30.976562 21.824219 29.722656 L 21.824219 16.335938 C 21.824219 16.078125 21.613281 15.867188 21.355469 15.867188 C 21.097656 15.867188 20.886719 16.078125 20.886719 16.335938 L 20.886719 29.722656 C 20.886719 30.460938 20.285156 31.0625 19.546875 31.0625 L 9.785156 31.0625 C 9.046875 31.0625 8.445312 30.460938 8.445312 29.722656 L 8.445312 13.269531 C 8.445312 12.566406 8.765625 11.914062 9.316406 11.476562 L 11.046875 10.117188 C 11.160156 10.027344 11.226562 9.894531 11.226562 9.75 L 11.226562 8.296875 L 18.105469 8.296875 L 18.105469 9.75 C 18.105469 9.894531 18.171875 10.027344 18.285156 10.117188 L 20.015625 11.476562 C 20.570312 11.914062 20.886719 12.566406 20.886719 13.269531 L 20.886719 14.339844 C 20.886719 14.597656 21.097656 14.808594 21.355469 14.808594 C 21.613281 14.808594 21.824219 14.597656 21.824219 14.339844 L 21.824219 13.269531 C 21.824219 12.277344 21.375 11.355469 20.59375 10.742188 L 19.042969 9.519531 L 19.042969 8.085938 C 19.042969 7.6875 18.714844 7.359375 18.316406 7.359375 L 17.894531 7.359375 L 17.894531 6.367188 C 17.894531 5.773438 17.410156 5.292969 16.816406 5.292969 L 16.136719 5.292969 L 16.136719 2.9375 L 19.480469 2.9375 C 20.320312 2.9375 21.097656 3.394531 21.5 4.128906 C 21.628906 4.363281 21.871094 4.507812 22.136719 4.507812 L 23.761719 4.507812 C 24.007812 4.507812 24.234375 4.386719 24.371094 4.179688 C 24.503906 3.976562 24.527344 3.71875 24.433594 3.496094 Z M 16.957031 6.367188 L 16.957031 7.359375 L 12.375 7.359375 L 12.375 6.367188 C 12.375 6.292969 12.4375 6.230469 12.515625 6.230469 L 16.816406 6.230469 C 16.894531 6.230469 16.957031 6.292969 16.957031 6.367188 Z M 15.199219 5.292969 L 14.132812 5.292969 L 14.132812 2.9375 L 15.199219 2.9375 Z M 15.199219 5.292969 "/>
<path style=" stroke:none;fill-rule:nonzero;fill:rgb(0%,0%,0%);fill-opacity:1;" d="M 11.25 17.457031 C 11.050781 17.292969 10.753906 17.316406 10.589844 17.515625 C 9.792969 18.46875 9.351562 19.679688 9.351562 20.921875 C 9.351562 23.851562 11.738281 26.238281 14.667969 26.238281 C 17.597656 26.238281 19.980469 23.851562 19.980469 20.921875 C 19.980469 17.992188 17.597656 15.609375 14.667969 15.609375 C 13.839844 15.609375 13.046875 15.792969 12.308594 16.160156 C 12.078125 16.273438 11.980469 16.554688 12.097656 16.789062 C 12.210938 17.019531 12.492188 17.113281 12.726562 17 C 13.332031 16.699219 13.984375 16.546875 14.667969 16.546875 C 17.082031 16.546875 19.042969 18.507812 19.042969 20.921875 C 19.042969 23.335938 17.082031 25.300781 14.667969 25.300781 C 12.253906 25.300781 10.289062 23.335938 10.289062 20.921875 C 10.289062 19.898438 10.652344 18.902344 11.308594 18.117188 C 11.472656 17.917969 11.445312 17.625 11.25 17.457031 Z M 11.25 17.457031 "/>
<path style=" stroke:none;fill-rule:nonzero;fill:rgb(0%,0%,0%);fill-opacity:1;" d="M 15.363281 17.964844 L 13.96875 17.964844 C 13.550781 17.964844 13.214844 18.304688 13.214844 18.71875 L 13.214844 19.46875 L 12.464844 19.46875 C 12.046875 19.46875 11.710938 19.808594 11.710938 20.222656 L 11.710938 21.621094 C 11.710938 22.035156 12.046875 22.375 12.464844 22.375 L 13.214844 22.375 L 13.214844 23.125 C 13.214844 23.539062 13.550781 23.878906 13.96875 23.878906 L 15.363281 23.878906 C 15.78125 23.878906 16.121094 23.539062 16.121094 23.125 L 16.121094 22.375 L 16.867188 22.375 C 17.285156 22.375 17.625 22.035156 17.625 21.621094 L 17.625 20.222656 C 17.625 19.808594 17.285156 19.46875 16.867188 19.46875 L 16.121094 19.46875 L 16.121094 18.71875 C 16.121094 18.304688 15.78125 17.964844 15.363281 17.964844 Z M 16.6875 20.40625 L 16.6875 21.4375 L 15.652344 21.4375 C 15.394531 21.4375 15.183594 21.648438 15.183594 21.90625 L 15.183594 22.941406 L 14.152344 22.941406 L 14.152344 21.90625 C 14.152344 21.648438 13.941406 21.4375 13.683594 21.4375 L 12.648438 21.4375 L 12.648438 20.40625 L 13.683594 20.40625 C 13.941406 20.40625 14.152344 20.195312 14.152344 19.9375 L 14.152344 18.902344 L 15.183594 18.902344 L 15.183594 19.9375 C 15.183594 20.195312 15.394531 20.40625 15.652344 20.40625 Z M 16.6875 20.40625 "/>
</g>
</svg>
