<?xml version="1.0" encoding="UTF-8"?>
<svg xmlns="http://www.w3.org/2000/svg" xmlns:xlink="http://www.w3.org/1999/xlink" width="16pt" height="16pt" viewBox="0 0 16 16" version="1.1">
<g id="surface1">
<path style=" stroke:none;fill-rule:nonzero;fill:rgb(100%,100%,100%);fill-opacity:1;" d="M 11.457031 4.273438 C 11.425781 3.746094 10.988281 3.332031 10.460938 3.332031 L 5.539062 3.332031 C 5.015625 3.332031 4.574219 3.746094 4.542969 4.273438 L 4.332031 7.667969 C 4.332031 8.59375 7.140625 8.667969 8 8.667969 C 8.859375 8.667969 11.667969 8.59375 11.664062 7.648438 Z M 8 8 C 6.289062 8 5.246094 7.746094 5.003906 7.59375 L 5.207031 4.3125 C 5.21875 4.136719 5.363281 4 5.539062 4 L 10.457031 4 C 10.636719 4 10.78125 4.136719 10.792969 4.3125 L 10.996094 7.59375 C 10.753906 7.746094 9.710938 8 8 8 Z M 8 8 "/>
<path style=" stroke:none;fill-rule:nonzero;fill:rgb(100%,100%,100%);fill-opacity:1;" d="M 5 10 C 4.449219 10 4 10.449219 4 11 C 4 11.550781 4.449219 12 5 12 C 5.550781 12 6 11.550781 6 11 C 6 10.449219 5.550781 10 5 10 Z M 5 11.332031 C 4.816406 11.332031 4.667969 11.183594 4.667969 11 C 4.667969 10.816406 4.816406 10.667969 5 10.667969 C 5.183594 10.667969 5.332031 10.816406 5.332031 11 C 5.332031 11.183594 5.183594 11.332031 5 11.332031 Z M 5 11.332031 "/>
<path style=" stroke:none;fill-rule:nonzero;fill:rgb(100%,100%,100%);fill-opacity:1;" d="M 11 10 C 10.449219 10 10 10.449219 10 11 C 10 11.550781 10.449219 12 11 12 C 11.550781 12 12 11.550781 12 11 C 12 10.449219 11.550781 10 11 10 Z M 11 11.332031 C 10.816406 11.332031 10.667969 11.183594 10.667969 11 C 10.667969 10.816406 10.816406 10.667969 11 10.667969 C 11.183594 10.667969 11.332031 10.816406 11.332031 11 C 11.332031 11.183594 11.183594 11.332031 11 11.332031 Z M 11 11.332031 "/>
<path style=" stroke:none;fill-rule:nonzero;fill:rgb(100%,100%,100%);fill-opacity:1;" d="M 9 10.667969 L 7 10.667969 C 6.816406 10.667969 6.667969 10.816406 6.667969 11 C 6.667969 11.183594 6.816406 11.332031 7 11.332031 L 9 11.332031 C 9.183594 11.332031 9.332031 11.183594 9.332031 11 C 9.332031 10.816406 9.183594 10.667969 9 10.667969 Z M 9 10.667969 "/>
<path style=" stroke:none;fill-rule:nonzero;fill:rgb(100%,100%,100%);fill-opacity:1;" d="M 11.246094 0.777344 C 11.175781 0.695312 10.472656 0 8 0 C 5.527344 0 4.824219 0.695312 4.753906 0.777344 C 4.632812 0.910156 4.640625 1.109375 4.773438 1.234375 C 4.902344 1.363281 5.113281 1.355469 5.238281 1.230469 C 5.246094 1.226562 5.84375 0.667969 8 0.667969 C 10.152344 0.667969 10.75 1.222656 10.753906 1.222656 C 10.816406 1.296875 10.910156 1.332031 11 1.332031 C 11.078125 1.332031 11.160156 1.304688 11.222656 1.246094 C 11.359375 1.125 11.371094 0.914062 11.246094 0.777344 Z M 11.246094 0.777344 "/>
<path style=" stroke:none;fill-rule:nonzero;fill:rgb(100%,100%,100%);fill-opacity:1;" d="M 9.171875 0.378906 C 9.011719 0.285156 8.808594 0.335938 8.714844 0.496094 L 8 1.683594 L 7.285156 0.496094 C 7.191406 0.335938 6.984375 0.285156 6.828125 0.378906 C 6.671875 0.476562 6.617188 0.679688 6.714844 0.839844 L 7.714844 2.503906 C 7.773438 2.605469 7.882812 2.667969 8 2.667969 C 8.117188 2.667969 8.226562 2.605469 8.285156 2.503906 L 9.285156 0.839844 C 9.378906 0.679688 9.328125 0.476562 9.171875 0.378906 Z M 9.171875 0.378906 "/>
<path style=" stroke:none;fill-rule:nonzero;fill:rgb(100%,100%,100%);fill-opacity:1;" d="M 12.75 3.554688 C 12.691406 2.683594 11.960938 2 11.085938 2 L 4.914062 2 C 4.039062 2 3.308594 2.683594 3.25 3.554688 L 2.667969 12.332031 C 2.667969 13.316406 5.476562 14 8 14 C 10.523438 14 13.332031 13.316406 13.332031 12.3125 Z M 8 13.332031 C 5.289062 13.332031 3.472656 12.597656 3.332031 12.355469 L 3.917969 3.601562 C 3.949219 3.078125 4.390625 2.667969 4.914062 2.667969 L 11.085938 2.667969 C 11.609375 2.667969 12.046875 3.078125 12.082031 3.601562 L 12.671875 12.296875 C 12.527344 12.597656 10.710938 13.332031 8 13.332031 Z M 8 13.332031 "/>
<path style=" stroke:none;fill-rule:nonzero;fill:rgb(100%,100%,100%);fill-opacity:1;" d="M 4.550781 13.078125 C 4.410156 12.960938 4.199219 12.976562 4.082031 13.117188 L 2.082031 15.449219 C 1.960938 15.589844 1.976562 15.800781 2.117188 15.917969 C 2.179688 15.972656 2.257812 16 2.332031 16 C 2.425781 16 2.519531 15.960938 2.585938 15.882812 L 4.585938 13.550781 C 4.707031 13.410156 4.691406 13.199219 4.550781 13.078125 Z M 4.550781 13.078125 "/>
<path style=" stroke:none;fill-rule:nonzero;fill:rgb(100%,100%,100%);fill-opacity:1;" d="M 13.917969 15.449219 L 11.917969 13.117188 C 11.800781 12.976562 11.589844 12.960938 11.449219 13.078125 C 11.308594 13.199219 11.292969 13.410156 11.414062 13.550781 L 13.414062 15.882812 C 13.480469 15.960938 13.574219 16 13.667969 16 C 13.742188 16 13.820312 15.972656 13.882812 15.917969 C 14.023438 15.800781 14.039062 15.589844 13.917969 15.449219 Z M 13.917969 15.449219 "/>
<path style=" stroke:none;fill-rule:nonzero;fill:rgb(100%,100%,100%);fill-opacity:1;" d="M 13 14.667969 L 3 14.667969 C 2.816406 14.667969 2.667969 14.816406 2.667969 15 C 2.667969 15.183594 2.816406 15.332031 3 15.332031 L 13 15.332031 C 13.183594 15.332031 13.332031 15.183594 13.332031 15 C 13.332031 14.816406 13.183594 14.667969 13 14.667969 Z M 13 14.667969 "/>
<path style=" stroke:none;fill-rule:nonzero;fill:rgb(100%,100%,100%);fill-opacity:1;" d="M 11.667969 13.332031 L 4.332031 13.332031 C 4.148438 13.332031 4 13.484375 4 13.667969 C 4 13.851562 4.148438 14 4.332031 14 L 11.667969 14 C 11.851562 14 12 13.851562 12 13.667969 C 12 13.484375 11.851562 13.332031 11.667969 13.332031 Z M 11.667969 13.332031 "/>
</g>
</svg>
